^C:\USERS\NERI\DOCUMENTS\GRAFICASCOMPUTACIONALES\GRAFICASCOMPUTACIONALES\HELLOWORLD V3\DEBUG\HELLOWORLDV3.OBJ
C:\USERS\NERI\DOCUMENTS\GRAFICASCOMPUTACIONALES\GRAFICASCOMPUTACIONALES\DEBUG\HELLOWORLD V3.ILK
C:\USERS\NERI\DOCUMENTS\GRAFICASCOMPUTACIONALES\GRAFICASCOMPUTACIONALES\DEBUG\HELLOWORLD V3.EXE
C:\USERS\NERI\DOCUMENTS\GRAFICASCOMPUTACIONALES\GRAFICASCOMPUTACIONALES\DEBUG\HELLOWORLD V3.PDB
