^C:\USERS\NERI\DOCUMENTS\GRAFICASCOMPUTACIONALES\GRAFICASCOMPUTACIONALES\PRIMITIVES_GLUT\PRIMITIVES_GLUT_DRIVER.CPP
C:\USERS\NERI\DOCUMENTS\GRAFICASCOMPUTACIONALES\GRAFICASCOMPUTACIONALES\PRIMITIVES_GLUT\DEBUG\VC120.PDB
C:\USERS\NERI\DOCUMENTS\GRAFICASCOMPUTACIONALES\GRAFICASCOMPUTACIONALES\PRIMITIVES_GLUT\DEBUG\VC120.IDB
C:\USERS\NERI\DOCUMENTS\GRAFICASCOMPUTACIONALES\GRAFICASCOMPUTACIONALES\PRIMITIVES_GLUT\DEBUG\PRIMITIVES_GLUT_DRIVER.OBJ
